ABM
…
fabm(N=96, p_t=0.1,alpha=2.4,k_min=3,r=-0.1, rho=0,rounds=10,s=10,e=10,w=30,z=35,seed=123)

#> Target degree-trait correlation: 0 
#> Starting degree-trait correlation: -0.05342365 
#> Tolerance: 0.05 
#> 
#> Trait-swapping at iteration 1 brought correlation closer to target! Current correlation: -0.01990293 
#> Target reached within tolerance at iteration 2 .
#> 
#> Final degree-trait correlation: -0.01990293 
#> Target reached within tolerance.

#> # A tibble: 960 × 7
#>       id role        preference choice round util_1 util_0
#>    <int> <chr>            <dbl>  <dbl> <int>  <dbl>  <dbl>
#>  1     1 conformist           0      0     1     NA     NA
#>  2     2 trendsetter          1      1     1     NA     NA
#>  3     3 conformist           0      0     1     NA     NA
#>  4     4 conformist           0      0     1     NA     NA
#>  5     5 conformist           0      0     1     NA     NA
#>  6     6 conformist           0      0     1     NA     NA
#>  7     7 conformist           0      0     1     NA     NA
#>  8     8 conformist           0      0     1     NA     NA
#>  9     9 trendsetter          1      1     1     NA     NA
#> 10    10 conformist           0      0     1     NA     NA
#> # ℹ 950 more rows
…
